{
  "page": 1,
  "total_results": 625,
  "total_pages": 32,
  "results": [
    {
      "vote_average": 8.1,
      "vote_count": 7318,
      "id": 348,
      "video": false,
      "media_type": "movie",
      "title": "Alien",
      "popularity": 24.744,
      "poster_path": "/2h00HrZs89SL3tXB4nbkiM7BKHs.jpg",
      "original_language": "en",
      "original_title": "Alien",
      "genre_ids": [27, 878],
      "backdrop_path": "/dfNrZ82poQ8blHWJreIv6JZQ9JA.jpg",
      "adult": false,
      "overview": "During its return to the earth, commercial spaceship Nostromo intercepts a distress signal from a distant planet. When a three-member team of the crew discovers a chamber containing thousands of eggs on the planet, a creature inside one of the eggs attacks an explorer. The entire crew is unaware of the impending nightmare set to descend upon them when the alien parasite planted inside its unfortunate host is birthed.",
      "release_date": "1979-05-25"
    },
    {
      "vote_average": 6.3,
      "vote_count": 2707,
      "id": 8077,
      "video": false,
      "media_type": "movie",
      "title": "Alien³",
      "popularity": 14.46,
      "poster_path": "/p7mUd9GpmCYV5qhkKGmiEerFK3i.jpg",
      "original_language": "en",
      "original_title": "Alien³",
      "genre_ids": [878, 28, 27],
      "backdrop_path": "/nDPuIjpJyGDOnNEby5ZgkRBxymS.jpg",
      "adult": false,
      "overview": "After escaping with Newt and Hicks from the alien planet, Ripley crash lands on Fiorina 161, a prison planet and host to a correctional facility. Unfortunately, although Newt and Hicks do not survive the crash, a more unwelcome visitor does. The prison does not allow weapons of any kind, and with aid being a long time away, the prisoners must simply survive in any way they can.",
      "release_date": "1992-05-22"
    },
    {
      "original_name": "Alien Nation",
      "id": 5383,
      "media_type": "tv",
      "name": "Alien Nation",
      "vote_count": 48,
      "vote_average": 6.83,
      "poster_path": "/mT2cMMs7KUNjUTGLgK5ERV5ZlhS.jpg",
      "first_air_date": "1989-09-18",
      "popularity": 5.097,
      "genre_ids": [10759, 18, 10765],
      "original_language": "en",
      "backdrop_path": "/66VjfIcJe7T3uUoMnlyueb3angz.jpg",
      "overview": "Alien Nation is a science fiction television series, loosely based on the movie of the same name. Gary Graham starred as Detective Matthew Sikes, a Los Angeles police officer reluctantly working with \"Newcomer\" alien George Francisco, played by Eric Pierpoint. Sikes also has an on again-off again flirtation with a female Newcomer, Cathy Frankel, played by Terri Treas.\n\nTV Guide included the series in their 2013 list of 60 shows that were \"Cancelled Too Soon\".",
      "origin_country": ["US"]
    },
    {
      "vote_average": 5.9,
      "vote_count": 4831,
      "id": 126889,
      "video": false,
      "media_type": "movie",
      "title": "Alien: Covenant",
      "popularity": 28.396,
      "poster_path": "/zecMELPbU5YMQpC81Z8ImaaXuf9.jpg",
      "original_language": "en",
      "original_title": "Alien: Covenant",
      "genre_ids": [27, 878, 53],
      "backdrop_path": "/6jajFcaY2YsfGQstJ5HaqZNVseX.jpg",
      "adult": false,
      "overview": "Bound for a remote planet on the far side of the galaxy, the crew of the colony ship 'Covenant' discovers what is thought to be an uncharted paradise, but is actually a dark, dangerous world—which has a sole inhabitant: the 'synthetic', David, survivor of the doomed Prometheus expedition.",
      "release_date": "2017-05-09"
    },
    {
      "vote_average": 6,
      "vote_count": 2298,
      "id": 8078,
      "video": false,
      "media_type": "movie",
      "title": "Alien Resurrection",
      "popularity": 17.388,
      "poster_path": "/2mavulZivbQa8XZlRA6h3hmesl7.jpg",
      "original_language": "en",
      "original_title": "Alien Resurrection",
      "genre_ids": [878, 27, 28],
      "backdrop_path": "/1F8KilfgVwWTB1tIzfwoKUvPqpl.jpg",
      "adult": false,
      "overview": "Two hundred years after Lt. Ripley died, a group of scientists clone her, hoping to breed the ultimate weapon. But the new Ripley is full of surprises … as are the new aliens. Ripley must team with a band of smugglers to keep the creatures from reaching Earth.",
      "release_date": "1997-11-12"
    },
    {
      "original_name": "Ben 10: Ultimate Alien",
      "id": 31109,
      "media_type": "tv",
      "name": "Ben 10: Ultimate Alien",
      "vote_count": 21,
      "vote_average": 6.79,
      "poster_path": "/xkCF39ZnhFEHk6ASys0mBB1tf1G.jpg",
      "first_air_date": "2010-04-23",
      "popularity": 12.802,
      "genre_ids": [16, 10759],
      "original_language": "en",
      "backdrop_path": "/uPJGcd1CiGhRkJNabzvowEqy7rM.jpg",
      "overview": "With his secret identity now revealed to the world, Ben Tennyson continues to fight evil as a superhero with the help of the newly acquired Ultimatrix.",
      "origin_country": ["US"]
    },
    {
      "original_name": "Ben 10: Alien Force",
      "id": 6040,
      "media_type": "tv",
      "name": "Ben 10: Alien Force",
      "vote_count": 26,
      "vote_average": 6.58,
      "poster_path": "/pGhCUqPaXZ0Xp4dUCT7Q6hjJArf.jpg",
      "first_air_date": "2008-04-18",
      "popularity": 11.774,
      "genre_ids": [10759, 16, 10751],
      "original_language": "en",
      "backdrop_path": "/eQ24gelCLp9ARrIKTZGHlLLFDQm.jpg",
      "overview": "Five years later, 15-year-old Ben Tennyson chooses to once again put on the OMNITRIX and discovers that it has reconfigured his DNA and can now transform him into 10 brand new aliens. Joined by his super-powered cousin Gwen Tennyson and his equally powerful former enemy Kevin Levin, Ben is on a mission to find his missing Grandpa Max. In order to save his Grandpa, Ben must defeat the evil DNALIENS, a powerful alien race intent on destroying the galaxy, starting with planet Earth.",
      "origin_country": ["US"]
    },
    {
      "original_name": "トーキョーエイリアンブラザーズ",
      "id": 82919,
      "media_type": "tv",
      "name": "Tokyo Alien Bros.",
      "vote_count": 0,
      "vote_average": 0,
      "poster_path": "/ezuUf84GtrBNe4jOY2t5hclIpht.jpg",
      "first_air_date": "2018-07-23",
      "popularity": 3.011,
      "genre_ids": [],
      "original_language": "ja",
      "backdrop_path": null,
      "overview": "In the year 2020, two alien brothers are on a mission. To learn about humans, they must interact with them. What will they discover in Tokyo?",
      "origin_country": ["JP"]
    },
    {
      "vote_average": 6,
      "vote_count": 131,
      "id": 10128,
      "video": false,
      "media_type": "movie",
      "title": "Alien Nation",
      "popularity": 6.501,
      "poster_path": "/cWkLFMYh6n8BjeUZEkMn0hpQyTz.jpg",
      "original_language": "en",
      "original_title": "Alien Nation",
      "genre_ids": [80, 878, 53],
      "backdrop_path": "/qS5vJMNGl98pYQvi5m913IiwqqH.jpg",
      "adult": false,
      "overview": "A few years from now, Earth will have the first contact with an alien civilisation. These aliens, known as Newcomers, slowly begin to be integrated into human society after years of quarantine.",
      "release_date": "1988-10-07"
    },
    {
      "original_name": "Alien News Desk",
      "id": 86269,
      "media_type": "tv",
      "name": "Alien News Desk",
      "vote_count": 1,
      "vote_average": 6,
      "poster_path": "/zxEOa5gRHHlqpMA7EAOsiop2jBS.jpg",
      "first_air_date": "2019-02-27",
      "popularity": 5.192,
      "genre_ids": [10763, 10767, 16],
      "original_language": "en",
      "backdrop_path": "/y7y1cOMSzIV8C0XIqfp2Blh99SW.jpg",
      "overview": "This weekly, half-hour topical animated series set in an extraterrestrial newsroom covers up-to-the-minute news and commentary about the universe’s most baffling species - the inscrutable Humans of Planet Earth.",
      "origin_country": ["US"]
    },
    {
      "original_name": "Pet Alien",
      "id": 1717,
      "media_type": "tv",
      "name": "Pet Alien",
      "vote_count": 1,
      "vote_average": 6,
      "poster_path": "/7DlJvWyp2AaDy64m626A4Ue8UkZ.jpg",
      "first_air_date": "2005-01-23",
      "popularity": 2.709,
      "genre_ids": [35],
      "original_language": "en",
      "backdrop_path": null,
      "overview": "Pet Alien is a US computer-animated series produced by Mike Young Productions and Antefilms Productions in 2005. It was created by Jeff Muncy and the episodes are mainly written by Dan Danko and directed by Andrew Young. The series centres around the 15-year-old boy Tommy Cadle, whose lighthouse is invaded by five aliens. Crest Animation studios brought this story to life with their computer graphics expertise and this series was executed by a crew based in Mumbai, India.",
      "origin_country": ["US"]
    },
    {
      "vote_average": 5.6,
      "vote_count": 2086,
      "id": 395,
      "video": false,
      "media_type": "movie",
      "title": "AVP: Alien vs. Predator",
      "popularity": 15.591,
      "poster_path": "/9xzRKUBIqLwhhOYtcE7P1BbWXP9.jpg",
      "original_language": "en",
      "original_title": "AVP: Alien vs. Predator",
      "genre_ids": [12, 878, 28, 27],
      "backdrop_path": "/f577pt0TOy3M3vfthfC5WdoBYA.jpg",
      "adult": false,
      "overview": "When scientists discover something in the Arctic that appears to be a buried Pyramid, they send a research team out to investigate. Little do they know that they are about to step into a hunting ground where Aliens are grown as sport for the Predator race.",
      "release_date": "2004-08-12"
    },
    {
      "vote_average": 4.9,
      "vote_count": 149,
      "id": 258193,
      "video": false,
      "media_type": "movie",
      "title": "Alien Abduction",
      "popularity": 5.292,
      "poster_path": "/vRP3IfrGCB0oXX5HubCkiNcwCcj.jpg",
      "original_language": "en",
      "original_title": "Alien Abduction",
      "genre_ids": [27, 878, 53],
      "backdrop_path": "/hqbDsduHAsCz34AUlwJoLkEm1Wb.jpg",
      "adult": false,
      "overview": "A vacationing family encounters an alien threat in this pulse-pounding thriller based on the real-life Brown Mountain Lights phenomenon in North Carolina.",
      "release_date": "2014-04-04"
    },
    {
      "vote_average": 4.7,
      "vote_count": 107,
      "id": 312526,
      "video": false,
      "media_type": "movie",
      "title": "Alien Outpost",
      "popularity": 5.259,
      "poster_path": "/jC6kjckGjdOLibPVyZpqj8W3Suk.jpg",
      "original_language": "en",
      "original_title": "Alien Outpost",
      "genre_ids": [53, 28, 878],
      "backdrop_path": "/lnk4hquGfzuG43ay7RZYw54q6TN.jpg",
      "adult": false,
      "overview": "A documentary crew follows an elite unit of soldiers in the wake of an alien invasion.",
      "release_date": "2014-09-19"
    },
    {
      "vote_average": 5.3,
      "vote_count": 54,
      "id": 22076,
      "video": false,
      "media_type": "movie",
      "title": "Alien Hunter",
      "popularity": 4.781,
      "poster_path": "/gDxpn1MZH3PgG2IgMYcM5WBCvhB.jpg",
      "original_language": "en",
      "original_title": "Alien Hunter",
      "genre_ids": [878, 28, 12],
      "backdrop_path": "/lPsDl4aNMPW47wEPI9FTaJGWdXW.jpg",
      "adult": false,
      "overview": "Government agents find evidence of extraterrestrial life at the South Pole.",
      "release_date": "2003-07-19"
    },
    {
      "vote_average": 0,
      "vote_count": 0,
      "id": 588216,
      "video": false,
      "media_type": "movie",
      "title": "Alien: Specimen",
      "popularity": 4.677,
      "poster_path": "/9nmaSgluuGMu3raTLpmwTRD7dPc.jpg",
      "original_language": "en",
      "original_title": "Alien: Specimen",
      "genre_ids": [878, 27],
      "backdrop_path": null,
      "adult": false,
      "overview": "It’s the night shift in a colony greenhouse, and Julie, a botanist, does her best to contain suspicious soil samples that have triggered her sensitive lab dog. Despite her best efforts the lab unexpectedly goes into full shutdown and she is trapped inside. Little does she know, an alien specimen has escaped the mysterious cargo, and a game of cat and mouse ensues as the creature searches for a host. (One of six short films produced to celebrate the 40th anniversary of 1979's Alien.)",
      "release_date": "2019-03-30"
    },
    {
      "vote_average": 5.8,
      "vote_count": 67,
      "id": 9773,
      "video": false,
      "media_type": "movie",
      "title": "Alien Autopsy",
      "popularity": 4.379,
      "poster_path": "/n5zJadsRZH8XAoQ6P5FRzIAhevJ.jpg",
      "original_language": "en",
      "original_title": "Alien Autopsy",
      "genre_ids": [35, 878],
      "backdrop_path": "/vhs6UVS8FsXAFlBa2YMMv66FRmj.jpg",
      "adult": false,
      "overview": "Humouristic reconstruction of the 1995 scandal when two British lads were accused of having faked a documentary from the Roswell incident in 1947.",
      "release_date": "2006-04-07"
    },
    {
      "original_name": "Lightning Point",
      "id": 40243,
      "media_type": "tv",
      "name": "Lightning Point",
      "vote_count": 2,
      "vote_average": 8.5,
      "poster_path": "/21Mpqqc5iVhoToGuHMIn0ZtNz7K.jpg",
      "first_air_date": "2012-05-29",
      "popularity": 4.29,
      "genre_ids": [10765, 18],
      "original_language": "en",
      "backdrop_path": "/jaNQjSWS6UUR86FtS4dx2zhwUAZ.jpg",
      "overview": "When a spaceship carrying pretty, teen aliens Zoey and Kiki lands in the quiet Australian surf town of Lightning Point, the girls have to befriend local surfiegirl Amber and let her in on their secret. But while the duo learns about Earth, surf and falling in love, the girls soon realize that they aren't the first extraterrestrial visitors.",
      "origin_country": ["AU"]
    },
    {
      "vote_average": 3,
      "vote_count": 5,
      "id": 550844,
      "video": false,
      "media_type": "movie",
      "title": "Alien Expedition",
      "popularity": 3.751,
      "poster_path": "/alHSQQMgJUAyHxVHzH1i8VXk6hu.jpg",
      "original_language": "en",
      "original_title": "Alien Expedition",
      "genre_ids": [878],
      "backdrop_path": "/pphvLmExQhj6fZid4DoRoQimiWA.jpg",
      "adult": false,
      "overview": "After a deep space exploration vessel discovers a potentially habitable planet, a scouting team composed of human and biorobotic individuals is dispatched to investigate the planet's resources. Once on the ground, their reconnaissance mission soon turns into a battle for survival against the planet's hostile alien lifeforms.",
      "release_date": "2018-09-25"
    },
    {
      "vote_average": 3.7,
      "vote_count": 9,
      "id": 539498,
      "video": false,
      "media_type": "movie",
      "title": "Alien Siege",
      "popularity": 3.703,
      "poster_path": "/crjEnEwbmhXg6g3EjiEIbjU5YfK.jpg",
      "original_language": "en",
      "original_title": "Alien Siege",
      "genre_ids": [878],
      "backdrop_path": "/nhoXXnSYUnsM4XifSvSBy73H7vc.jpg",
      "adult": false,
      "overview": "After an alien spacecraft destroys Washington, D.C., the residents of a small town must fight off a unit of alien soldiers on the hunt for the President of the United States and the mysterious device he's carrying after his escape chopper crash lands nearby.",
      "release_date": "2018-07-31"
    }
  ]
}
